{
    "/js/app.js": "/js/app.js",
    "/js/frontend/swico.js": "/js/frontend/swico.js",
    "/js/frontend/swissmade.js": "/js/frontend/swissmade.js",
    "/js/frontend/trade.js": "/js/frontend/trade.js",
    "/css/frontend/trade.css": "/css/frontend/trade.css",
    "/css/frontend/swissmade.css": "/css/frontend/swissmade.css",
    "/css/frontend/swico.css": "/css/frontend/swico.css",
    "/css/app.css": "/css/app.css"
}
