<svg xmlns="http://www.w3.org/2000/svg" width="52.468" height="40" viewBox="0 0 52.468 40">
    <path class="fill-current" d="M21.789 39.944L9.351 27.505l-4.236 4.206 16.674 16.674 35.794-35.794-4.206-4.206z" transform="translate(-5.115 -8.385)"/>
</svg>
