<svg xmlns="http://www.w3.org/2000/svg" width="40" height="40" viewBox="0 0 40 40">
    <path class="fill-current" d="M33.088 29.657h-1.807l-.64-.617a14.888 14.888 0 1 0-1.6 1.6l.617.64v1.807L41.092 44.5l3.408-3.408zm-13.722 0a10.292 10.292 0 1 1 10.291-10.291 10.278 10.278 0 0 1-10.291 10.291z" transform="translate(-4.5 -4.5)"/>
</svg>
