<svg xmlns="http://www.w3.org/2000/svg" width="40" height="40" viewBox="0 0 40 40">
    <path class="fill-current" d="M40.056 4.5H8.944A4.458 4.458 0 0 0 4.5 8.944v31.112A4.458 4.458 0 0 0 8.944 44.5h31.112a4.458 4.458 0 0 0 4.444-4.444V8.944A4.458 4.458 0 0 0 40.056 4.5zM17.833 35.611h-4.444V20.056h4.444zm8.889 0h-4.444V13.389h4.444zm8.889 0h-4.444v-8.889h4.444z" transform="translate(-4.5 -4.5)"/>
</svg>
