<svg xmlns="http://www.w3.org/2000/svg" width="40" height="40" viewBox="0 0 40 40">
    <path class="fill-current" d="M23 3a20 20 0 1 0 20 20A20.007 20.007 0 0 0 23 3zm-2 28h-4V15h4zm8 0h-4V15h4z" transform="translate(-3 -3)"/>
</svg>
