<svg xmlns="http://www.w3.org/2000/svg" width="26.667" height="40" viewBox="0 0 26.667 40">
    <path class="fill-current" d="M33.417 21.125a13.194 13.194 0 0 0-5.083-10.417L26.75 1.125H13.417l-1.584 9.583a13.215 13.215 0 0 0 0 20.833l1.584 9.583H26.75l1.584-9.583a13.2 13.2 0 0 0 5.083-10.416zm-23.333 0a10 10 0 1 1 10 10 10.03 10.03 0 0 1-10.001-10z" transform="translate(-6.75 -1.125)"/>
</svg>
