<svg xmlns="http://www.w3.org/2000/svg" width="40" height="26.667" viewBox="0 0 40 26.667">
    <path class="fill-current" d="M20.056 35.667h8.889v-4.445h-8.889zM4.5 9v4.444h40V9zm6.667 15.556h26.666v-4.445H11.167z" transform="translate(-4.5 -9)"/>
</svg>
