<svg xmlns="http://www.w3.org/2000/svg" width="40" height="40" viewBox="0 0 40 40">
    <path class="fill-current" d="M47.5 11.529L43.471 7.5 27.5 23.471 11.529 7.5 7.5 11.529 23.471 27.5 7.5 43.471l4.029 4.029L27.5 31.529 43.471 47.5l4.029-4.029L31.529 27.5z" transform="translate(-7.5 -7.5)"/>
</svg>
